[Information] [05/01/2015 21:51:04] Server Started. Running Alchemy Websockets.
[Information] [05/01/2015 21:51:04] Game: Tintbullet, Version: 1.0.0, Debug Mode: True
[Information] [05/01/2015 21:51:04] [Type "exit" and hit enter to stop the server.]
[Information] [05/01/2015 21:51:50] Server stopped.
[Information] [05/01/2015 21:52:39] Server Started. Running Alchemy Websockets.
[Information] [05/01/2015 21:52:39] Game: Tintbullet, Version: 1.0.0, Debug Mode: True
[Information] [05/01/2015 21:52:39] [Type "exit" and hit enter to stop the server.]
[Information] [05/01/2015 21:53:43] Server stopped.
[Information] [05/01/2015 21:56:01] Server Started. Running Alchemy Websockets.
[Information] [05/01/2015 21:56:01] Game: Tintbullet, Version: 1.0.0, Debug Mode: True
[Information] [05/01/2015 21:56:01] [Type "exit" and hit enter to stop the server.]
[Information] [05/01/2015 21:56:09] Server stopped.
[Information] [05/01/2015 22:39:28] Server Started. Running Alchemy Websockets.
[Information] [05/01/2015 22:39:28] Game: Tintbullet, Version: 1.0.0, Debug Mode: True
[Information] [05/01/2015 22:39:28] [Type "exit" and hit enter to stop the server.]
[Socket] [05/01/2015 22:41:13] Client Connection From : 127.0.0.1:51891
[Socket] [05/01/2015 22:41:13] Data Sent To : 127.0.0.1:51891
[Socket] [05/01/2015 22:41:42] Received Data From :127.0.0.1:51891
[Socket] [05/01/2015 22:41:42] {"Type":"Login","Data":{"Username":"Carim","Password":"41ece17209c56bb6e556144eb732771f"}}
[Information] [05/01/2015 22:41:43] Saved "Carim"
[Information] [05/01/2015 22:41:43] Created new account: "Carim"
[Information] [05/01/2015 22:41:43] Saved "Carim"
[Warning] [05/01/2015 22:41:43] User "Carim" logged in.
[Socket] [05/01/2015 22:41:43] Data Sent To : 127.0.0.1:51891
[Socket] [05/01/2015 22:41:43] Data Sent To : 127.0.0.1:51891
[Socket] [05/01/2015 22:41:43] Data Sent To : 127.0.0.1:51891
[Socket] [05/01/2015 22:41:43] Data Sent To : 127.0.0.1:51891
[Socket] [05/01/2015 22:41:43] Data Sent To : 127.0.0.1:51891
[Socket] [05/01/2015 22:41:43] Data Sent To : 127.0.0.1:51891
[Socket] [05/01/2015 22:42:12] Received Data From :127.0.0.1:51891
[Socket] [05/01/2015 22:42:12] {"Type":"Chat","Data":{"Message":"xxx"}}
[Information] [05/01/2015 22:42:12] Chat: #Carim - xxx
[Socket] [05/01/2015 22:42:12] Data Sent To : 127.0.0.1:51891
[Information] [05/01/2015 22:42:34] Server stopped.
[Information] [05/01/2015 22:57:31] Server Started. Running Alchemy Websockets.
[Information] [05/01/2015 22:57:31] Game: Tintbullet, Version: 1.0.0, Debug Mode: True
[Information] [05/01/2015 22:57:31] [Type "exit" and hit enter to stop the server.]
[Information] [05/01/2015 23:02:32] Server stopped.
